<svg 
 xmlns="http://www.w3.org/2000/svg"
 xmlns:xlink="http://www.w3.org/1999/xlink"
 width="25.5px" height="18.5px">
<path fill-rule="evenodd"  stroke="rgb(45, 45, 45)" stroke-width="3px" stroke-linecap="butt" stroke-linejoin="miter" fill="none"
 d="M3.500,3.500 L12.500,12.500 L20.500,3.500 "/>
</svg>